{
  "project_info": {
    "project_number": "304837557158",
    "firebase_url": "https://utmlifestyle-67387-default-rtdb.firebaseio.com",
    "project_id": "utmlifestyle-67387",
    "storage_bucket": "utmlifestyle-67387.appspot.com"
  },
  "client": [
    {
      "client_info": {
        "mobilesdk_app_id": "1:304837557158:android:ecade4dc9fdfd08cc82d67",
        "android_client_info": {
          "package_name": "com.example.equipmentrental"
        }
      },
      "oauth_client": [
        {
          "client_id": "304837557158-e0eu4j682tomnbpg7303pqbrt8l6vmhl.apps.googleusercontent.com",
          "client_type": 3
        }
      ],
      "api_key": [
        {
          "current_key": "AIzaSyC5qBFzpX7jiGjlN8EBuHNMJQP2e3ADlLI"
        }
      ],
      "services": {
        "appinvite_service": {
          "other_platform_oauth_client": [
            {
              "client_id": "304837557158-e0eu4j682tomnbpg7303pqbrt8l6vmhl.apps.googleusercontent.com",
              "client_type": 3
            }
          ]
        }
      }
    },
    {
      "client_info": {
        "mobilesdk_app_id": "1:304837557158:android:6c4e13ac80824843c82d67",
        "android_client_info": {
          "package_name": "com.example.jojo"
        }
      },
      "oauth_client": [
        {
          "client_id": "304837557158-e0eu4j682tomnbpg7303pqbrt8l6vmhl.apps.googleusercontent.com",
          "client_type": 3
        }
      ],
      "api_key": [
        {
          "current_key": "AIzaSyC5qBFzpX7jiGjlN8EBuHNMJQP2e3ADlLI"
        }
      ],
      "services": {
        "appinvite_service": {
          "other_platform_oauth_client": [
            {
              "client_id": "304837557158-e0eu4j682tomnbpg7303pqbrt8l6vmhl.apps.googleusercontent.com",
              "client_type": 3
            }
          ]
        }
      }
    },
    {
      "client_info": {
        "mobilesdk_app_id": "1:304837557158:android:aede6d3a4e1fc5cbc82d67",
        "android_client_info": {
          "package_name": "com.example.myapplication"
        }
      },
      "oauth_client": [
        {
          "client_id": "304837557158-e0eu4j682tomnbpg7303pqbrt8l6vmhl.apps.googleusercontent.com",
          "client_type": 3
        }
      ],
      "api_key": [
        {
          "current_key": "AIzaSyC5qBFzpX7jiGjlN8EBuHNMJQP2e3ADlLI"
        }
      ],
      "services": {
        "appinvite_service": {
          "other_platform_oauth_client": [
            {
              "client_id": "304837557158-e0eu4j682tomnbpg7303pqbrt8l6vmhl.apps.googleusercontent.com",
              "client_type": 3
            }
          ]
        }
      }
    },
    {
      "client_info": {
        "mobilesdk_app_id": "1:304837557158:android:cc50648a1194b3bcc82d67",
        "android_client_info": {
          "package_name": "com.example.routetrackingv1"
        }
      },
      "oauth_client": [
        {
          "client_id": "304837557158-e0eu4j682tomnbpg7303pqbrt8l6vmhl.apps.googleusercontent.com",
          "client_type": 3
        }
      ],
      "api_key": [
        {
          "current_key": "AIzaSyC5qBFzpX7jiGjlN8EBuHNMJQP2e3ADlLI"
        }
      ],
      "services": {
        "appinvite_service": {
          "other_platform_oauth_client": [
            {
              "client_id": "304837557158-e0eu4j682tomnbpg7303pqbrt8l6vmhl.apps.googleusercontent.com",
              "client_type": 3
            }
          ]
        }
      }
    },
    {
      "client_info": {
        "mobilesdk_app_id": "1:304837557158:android:d1285c1719afdd94c82d67",
        "android_client_info": {
          "package_name": "com.example.user.navigationdrawersample"
        }
      },
      "oauth_client": [
        {
          "client_id": "304837557158-e0eu4j682tomnbpg7303pqbrt8l6vmhl.apps.googleusercontent.com",
          "client_type": 3
        }
      ],
      "api_key": [
        {
          "current_key": "AIzaSyC5qBFzpX7jiGjlN8EBuHNMJQP2e3ADlLI"
        }
      ],
      "services": {
        "appinvite_service": {
          "other_platform_oauth_client": [
            {
              "client_id": "304837557158-e0eu4j682tomnbpg7303pqbrt8l6vmhl.apps.googleusercontent.com",
              "client_type": 3
            }
          ]
        }
      }
    },
    {
      "client_info": {
        "mobilesdk_app_id": "1:304837557158:android:17cf84031cb633efc82d67",
        "android_client_info": {
          "package_name": "com.example.utm"
        }
      },
      "oauth_client": [
        {
          "client_id": "304837557158-e0eu4j682tomnbpg7303pqbrt8l6vmhl.apps.googleusercontent.com",
          "client_type": 3
        }
      ],
      "api_key": [
        {
          "current_key": "AIzaSyC5qBFzpX7jiGjlN8EBuHNMJQP2e3ADlLI"
        }
      ],
      "services": {
        "appinvite_service": {
          "other_platform_oauth_client": [
            {
              "client_id": "304837557158-e0eu4j682tomnbpg7303pqbrt8l6vmhl.apps.googleusercontent.com",
              "client_type": 3
            }
          ]
        }
      }
    },
    {
      "client_info": {
        "mobilesdk_app_id": "1:304837557158:android:b101904d43c01310c82d67",
        "android_client_info": {
          "package_name": "com.example.utmlifestyle"
        }
      },
      "oauth_client": [
        {
          "client_id": "304837557158-e0eu4j682tomnbpg7303pqbrt8l6vmhl.apps.googleusercontent.com",
          "client_type": 3
        }
      ],
      "api_key": [
        {
          "current_key": "AIzaSyC5qBFzpX7jiGjlN8EBuHNMJQP2e3ADlLI"
        }
      ],
      "services": {
        "appinvite_service": {
          "other_platform_oauth_client": [
            {
              "client_id": "304837557158-e0eu4j682tomnbpg7303pqbrt8l6vmhl.apps.googleusercontent.com",
              "client_type": 3
            }
          ]
        }
      }
    },
    {
      "client_info": {
        "mobilesdk_app_id": "1:304837557158:android:382dd04dd61a64f0c82d67",
        "android_client_info": {
          "package_name": "com.example.utmlifestyle_admin_venue"
        }
      },
      "oauth_client": [
        {
          "client_id": "304837557158-e0eu4j682tomnbpg7303pqbrt8l6vmhl.apps.googleusercontent.com",
          "client_type": 3
        }
      ],
      "api_key": [
        {
          "current_key": "AIzaSyC5qBFzpX7jiGjlN8EBuHNMJQP2e3ADlLI"
        }
      ],
      "services": {
        "appinvite_service": {
          "other_platform_oauth_client": [
            {
              "client_id": "304837557158-e0eu4j682tomnbpg7303pqbrt8l6vmhl.apps.googleusercontent.com",
              "client_type": 3
            }
          ]
        }
      }
    },
    {
      "client_info": {
        "mobilesdk_app_id": "1:304837557158:android:33fd15de02543cb7c82d67",
        "android_client_info": {
          "package_name": "com.example.utmlifestyle_david"
        }
      },
      "oauth_client": [
        {
          "client_id": "304837557158-e0eu4j682tomnbpg7303pqbrt8l6vmhl.apps.googleusercontent.com",
          "client_type": 3
        }
      ],
      "api_key": [
        {
          "current_key": "AIzaSyC5qBFzpX7jiGjlN8EBuHNMJQP2e3ADlLI"
        }
      ],
      "services": {
        "appinvite_service": {
          "other_platform_oauth_client": [
            {
              "client_id": "304837557158-e0eu4j682tomnbpg7303pqbrt8l6vmhl.apps.googleusercontent.com",
              "client_type": 3
            }
          ]
        }
      }
    },
    {
      "client_info": {
        "mobilesdk_app_id": "1:304837557158:android:d568d48073a119d8c82d67",
        "android_client_info": {
          "package_name": "com.example.utmlifestyle_joev1"
        }
      },
      "oauth_client": [
        {
          "client_id": "304837557158-e0eu4j682tomnbpg7303pqbrt8l6vmhl.apps.googleusercontent.com",
          "client_type": 3
        }
      ],
      "api_key": [
        {
          "current_key": "AIzaSyC5qBFzpX7jiGjlN8EBuHNMJQP2e3ADlLI"
        }
      ],
      "services": {
        "appinvite_service": {
          "other_platform_oauth_client": [
            {
              "client_id": "304837557158-e0eu4j682tomnbpg7303pqbrt8l6vmhl.apps.googleusercontent.com",
              "client_type": 3
            }
          ]
        }
      }
    },
    {
      "client_info": {
        "mobilesdk_app_id": "1:304837557158:android:a6350d08c1d80405c82d67",
        "android_client_info": {
          "package_name": "com.example.utmlifestylev"
        }
      },
      "oauth_client": [
        {
          "client_id": "304837557158-e0eu4j682tomnbpg7303pqbrt8l6vmhl.apps.googleusercontent.com",
          "client_type": 3
        }
      ],
      "api_key": [
        {
          "current_key": "AIzaSyC5qBFzpX7jiGjlN8EBuHNMJQP2e3ADlLI"
        }
      ],
      "services": {
        "appinvite_service": {
          "other_platform_oauth_client": [
            {
              "client_id": "304837557158-e0eu4j682tomnbpg7303pqbrt8l6vmhl.apps.googleusercontent.com",
              "client_type": 3
            }
          ]
        }
      }
    },
    {
      "client_info": {
        "mobilesdk_app_id": "1:304837557158:android:5b86724f01c8d777c82d67",
        "android_client_info": {
          "package_name": "nl.psdcompany.duonavigationdrawer.example"
        }
      },
      "oauth_client": [
        {
          "client_id": "304837557158-e0eu4j682tomnbpg7303pqbrt8l6vmhl.apps.googleusercontent.com",
          "client_type": 3
        }
      ],
      "api_key": [
        {
          "current_key": "AIzaSyC5qBFzpX7jiGjlN8EBuHNMJQP2e3ADlLI"
        }
      ],
      "services": {
        "appinvite_service": {
          "other_platform_oauth_client": [
            {
              "client_id": "304837557158-e0eu4j682tomnbpg7303pqbrt8l6vmhl.apps.googleusercontent.com",
              "client_type": 3
            }
          ]
        }
      }
    }
  ],
  "configuration_version": "1"
}